BYU-Idaho Time Series - Testing Code
…
          + lag(value, 3)
          + lag(value, 2)
          + lag(value, 1)
          + value
          + lead(value, 1)
          + lead(value, 2)
          + lead(value, 3)
          + lead(value, 4)
          + lead(value, 5)
          + (1/2) * lead(value, 6)
        ) / 12
  )
desired_tsibble

# A tsibble: 753 x 6 [1D]
    year month value dates        diff m_hat
   <dbl> <dbl> <dbl> <date>      <dbl> <dbl>
 1  2021     1  197. 2021-01-04 NA       NA 
 2  2021     1  198. 2021-01-05  1.18    NA 
 3  2021     1  197. 2021-01-06 -0.449   NA 
 4  2021     1  198. 2021-01-07  0.916   NA 
 5  2021     1  202. 2021-01-08  3.64    NA 
 6  2021     1  200. 2021-01-11 -1.53    NA 
 7  2021     1  198. 2021-01-12 -2.46   198.
 8  2021     1  198. 2021-01-13  0.458  198.
 9  2021     1  195. 2021-01-14 -3.36   198.
10  2021     1  196. 2021-01-15  1.32   199.
#  743 more rows
