BYU-Idaho Time Series - Testing Code
…
          + lag(value, 3)
          + lag(value, 2)
          + lag(value, 1)
          + value
          + lead(value, 1)
          + lead(value, 2)
          + lead(value, 3)
          + lead(value, 4)
          + lead(value, 5)
          + (1/2) * lead(value, 6)
        ) / 12
  )
desired_tsibble

# A tsibble: 1,006 x 5 [1D]
    year month value dates      m_hat
   <dbl> <dbl> <dbl> <date>     <dbl>
 1  2020     1  339. 2020-01-16   NA 
 2  2020     1  340. 2020-01-17   NA 
 3  2020     1  338. 2020-01-21   NA 
 4  2020     1  326  2020-01-22   NA 
 5  2020     1  350. 2020-01-23   NA 
 6  2020     1  353. 2020-01-24   NA 
 7  2020     1  343. 2020-01-27  345.
 8  2020     1  349. 2020-01-28  348.
 9  2020     1  343. 2020-01-29  350.
10  2020     1  348. 2020-01-30  353.
#  996 more rows
