Untitled
…
retail_final_lm <- retail_ts |>
  model(retail_full = TSLM(log(sales_millions) ~  
      (in_great_recession * std_t) + (after_great_recession * std_t) 
      + (in_great_recession * I(std_t^2) ) + (after_great_recession * I(std_t^2) )
      + (in_great_recession * I(std_t^3) ) + (after_great_recession * I(std_t^3) )
      + sin1 + cos1 + sin2 + cos2 + sin3 + cos3
      + sin4 + cos4 + sin5 + cos5 + cos6 # Note sin6 is omitted
    )
    ) 

retail_final_lm |>
  tidy() |>
  mutate(sig = p.value < 0.05) 

# A tibble: 23 × 7
   .model      term                  estimate std.error statistic  p.value sig  
   <chr>       <chr>                    <dbl>     <dbl>     <dbl>    <dbl> <lgl>
 1 retail_full (Intercept)            9.70e+0   0.00621 1561.     0        TRUE 
 2 retail_full in_great_recession     1.06e-1   0.119      0.890  3.74e- 1 FALSE
 3 retail_full std_t                  4.91e-1   0.0327    15.0    9.28e-39 TRUE 
 4 retail_full after_great_recession -1.56e-1   0.0313    -4.98   1.06e- 6 TRUE 
 5 retail_full I(std_t^2)            -1.63e-2   0.0458    -0.356  7.22e- 1 FALSE
 6 retail_full I(std_t^3)            -1.02e-2   0.0179    -0.571  5.68e- 1 FALSE
 7 retail_full sin1                  -2.52e-5   0.00204   -0.0124 9.90e- 1 FALSE
 8 retail_full cos1                  -3.60e-2   0.00206  -17.5    2.44e-48 TRUE 
 9 retail_full sin2                  -3.75e-3   0.00202   -1.86   6.37e- 2 FALSE
10 retail_full cos2                   7.81e-3   0.00202    3.87   1.31e- 4 TRUE 
# ℹ 13 more rows
…
