BYU-Idaho Time Series - Forecasting, Inverse Transformation, and Bias Correction
…
    cos2 = cos(2 * pi * 2 * t / 12),
    cos3 = cos(2 * pi * 3 * t / 12),
    cos4 = cos(2 * pi * 4 * t / 12),
    cos5 = cos(2 * pi * 5 * t / 12),
    cos6 = cos(2 * pi * 6 * t / 12),
    sin1 = sin(2 * pi * 1 * t / 12),
    sin2 = sin(2 * pi * 2 * t / 12),
    sin3 = sin(2 * pi * 3 * t / 12),
    sin4 = sin(2 * pi * 4 * t / 12),
    sin5 = sin(2 * pi * 5 * t / 12)
  ) |>
  as_tsibble(index = month)
elec_ts

# A tsibble: 168 x 16 [1D]
   month      state megawatthours     t std_t      cos1   cos2      cos3   cos4
   <date>     <chr>         <dbl> <int> <dbl>     <dbl>  <dbl>     <dbl>  <dbl>
 1 2010-01-01 TX          7560571     1 -1.72  8.66e- 1  0.5    6.12e-17 -0.5  
 2 2010-02-01 TX          7139925     2 -1.70  5   e- 1 -0.5   -1   e+ 0 -0.500
 3 2010-03-01 TX          7951458     3 -1.68  6.12e-17 -1     -1.84e-16  1    
 4 2010-04-01 TX          7763731     4 -1.65 -5   e- 1 -0.500  1   e+ 0 -0.500
 5 2010-05-01 TX          8279605     5 -1.63 -8.66e- 1  0.5    1.19e-15 -0.5  
 6 2010-06-01 TX          8742282     6 -1.61 -1   e+ 0  1     -1   e+ 0  1    
 7 2010-07-01 TX          9185316     7 -1.59 -8.66e- 1  0.500 -4.29e-16 -0.500
 8 2010-08-01 TX          9588951     8 -1.57 -5.00e- 1 -0.500  1   e+ 0 -0.500
 9 2010-09-01 TX          9020325     9 -1.55 -1.84e-16 -1      5.51e-16  1    
10 2010-10-01 TX          8478743    10 -1.53  5   e- 1 -0.5   -1   e+ 0 -0.500
# ℹ 158 more rows
# ℹ 7 more variables: cos5 <dbl>, cos6 <dbl>, sin1 <dbl>, sin2 <dbl>,
#   sin3 <dbl>, sin4 <dbl>, sin5 <dbl>
…
