BYU-Idaho Time Series - Harmonic Seasonal Variables
…
river_full_lm |>
  tidy() |>
  mutate(sig = p.value < 0.05)

# A tibble: 25 × 7
   .model        term         estimate std.error statistic   p.value sig  
   <chr>         <chr>           <dbl>     <dbl>     <dbl>     <dbl> <lgl>
 1 river_full_lm (Intercept)  841.       24.8       33.9   1.82e-139 TRUE 
 2 river_full_lm TIME          -0.0267    0.0715    -0.373 7.09e-  1 FALSE
 3 river_full_lm sin1        -581.       17.5      -33.2   6.56e-136 TRUE 
 4 river_full_lm cos1        -130.       17.5       -7.46  3.30e- 13 TRUE 
 5 river_full_lm sin2         308.       17.5       17.6   6.27e- 56 TRUE 
 6 river_full_lm cos2        -307.       17.5      -17.5   1.92e- 55 TRUE 
 7 river_full_lm sin3          90.8      17.5        5.19  2.94e-  7 TRUE 
 8 river_full_lm cos3         250.       17.5       14.3   7.36e- 40 TRUE 
 9 river_full_lm sin4        -146.       17.5       -8.35  5.29e- 16 TRUE 
10 river_full_lm cos4         -25.6      17.5       -1.46  1.44e-  1 FALSE
# ℹ 15 more rows
…
