BYU-Idaho Time Series - Holt-Winters Method (Additive Model)
…
temp1

# A tsibble: 36 x 5 [1M]
       date value estimated_level estimated_slope estimated_seasonal
      <mth> <dbl>           <dbl>           <dbl>              <dbl>
 1 2021 Jan  100             100            0.5               0     
 2 2021 Feb  104.            101.           0.620             0     
 3 2021 Mar  101             102.           0.591             0     
 4 2021 Apr  102.            102.           0.565             0     
 5 2021 May  102             102.           0.541            -0.0957
 6 2021 Jun  106.            104.           0.640             0.397 
 7 2021 Jul  103             104.           0.594            -0.185 
 8 2021 Aug  104.            104.           0.553            -0.163 
 9 2021 Sep  104             105.           0.522            -0.219 
10 2021 Oct  108.            106.           0.597             0.696 
# ℹ 26 more rows

temp2

# A tsibble: 52 x 7 [1D]
   date       value estimated_level estimated_slope estimated_seasonal month
   <date>     <dbl>           <dbl>           <dbl>              <dbl> <lgl>
 1 2021-01-01  100             100            0.5               0      NA   
 2 2021-02-01  104.            101.           0.620             0      NA   
 3 2021-03-01  101             102.           0.591             0      NA   
 4 2021-04-01  102.            102.           0.565             0      NA   
 5 2021-05-01  102             102.           0.541            -0.0957 NA   
 6 2021-06-01  106.            104.           0.640             0.397  NA   
 7 2021-07-01  103             104.           0.594            -0.185  NA   
 8 2021-08-01  104.            104.           0.553            -0.163  NA   
 9 2021-09-01  104             105.           0.522            -0.219  NA   
10 2021-10-01  108.            106.           0.597             0.696  NA   
# ℹ 42 more rows
# ℹ 1 more variable: forecast <dbl>
…
df <- read.csv("https://byuistats.github.io/timeseries/data/baltimore_crime.csv", 
               header=TRUE,
               stringsAsFactors=FALSE)
summary_df <- df %>%
  group_by(CrimeDate) %>%
  summarise(
    total_incidents = sum(Total.Incidents)
  )
crime_data <- summary_df %>%
  mutate(CrimeDate = as.Date(CrimeDate, format = "%m/%d/%Y")) %>% 
  arrange(CrimeDate)
crime_tsibble <- as_tsibble(crime_data, index = CrimeDate)
crime_tsibble # Uncomment to see table

# A tsibble: 2,143 x 2 [1D]
   CrimeDate  total_incidents
   <date>               <int>
 1 2011-01-01             185
 2 2011-01-02             102
 3 2011-01-03             106
 4 2011-01-04             113
 5 2011-01-05             131
 6 2011-01-06             107
 7 2011-01-07             150
 8 2011-01-08             106
 9 2011-01-09              98
10 2011-01-10             115
# ℹ 2,133 more rows
…
