BYU-Idaho Time Series – chapter_4_lesson_4
…
Residuals

We can compute the residuals in the same manner as we did for the other models.

Check Your Understanding

Working with a partner, do the following

Write the expression used to compute the residuals.

Find the residuals of this sequence using your expression.

Here are the first few residuals. Compare these to the values you computed.

# A tsibble: 1,000 x 3 [1]
# Key:       .model [1]
   .model           index  .resid
   <chr>            <int>   <dbl>
 1 AR(x ~ order(2))     1 NA     
 2 AR(x ~ order(2))     2 NA     
 3 AR(x ~ order(2))     3  1.53  
 4 AR(x ~ order(2))     4  0.0791
 5 AR(x ~ order(2))     5  0.110 
 6 AR(x ~ order(2))     6  1.71  
 7 AR(x ~ order(2))     7  0.485 
 8 AR(x ~ order(2))     8 -1.26  
 9 AR(x ~ order(2))     9 -0.709 
10 AR(x ~ order(2))    10 -0.462 
# ℹ 990 more rows
…
