BYU-Idaho Time Series - Introduction to Non-stationary Models and Differencing
…
Show the code

exchange_ts

# A tsibble: 218 x 3 [1D]
   date       currency  rate
   <date>     <chr>    <dbl>
 1 2023-08-24 USD.EUR  0.922
 2 2023-08-25 USD.EUR  0.926
 3 2023-08-26 USD.EUR  0.926
 4 2023-08-27 USD.EUR  0.926
 5 2023-08-28 USD.EUR  0.925
 6 2023-08-29 USD.EUR  0.923
 7 2023-08-30 USD.EUR  0.918
 8 2023-08-31 USD.EUR  0.919
 9 2023-09-01 USD.EUR  0.924
10 2023-09-02 USD.EUR  0.928
# ℹ 208 more rows
…
